{
  "$schema": "https://turbo.build/schema.json",
  "tasks": {
    "build": {
      "dependsOn": ["^build"]
    },
    "clean": {
      "cache": true
    },
    "dev": {
      "cache": false,
      "persistent": true
    },
    "format": {},
    "format:check": {},
    "lint": {},
    "lint:fix": {},
    "test": {},
    "test:coverage": {},
    "typecheck": {}
  }
}
